[{
	"id": 1,
	"subject": "Письмо 1",
	"created": "2016-03-01 23:59",
	"parts": [{
		"id": 1,
		"author": "vasya",
		"text": "Привет, как дела?",
		"type":"1"
	}, {
		"id": 2,
		"author": "petya",
		"text": "Привет, все хорошо, спасибо!",
		"type":"2"
	}]
}, {
	"id": 2,
	"subject": "Письмо 2",
	"created": "2016-03-02 14:19",
	"parts": [{
		"id": 1,
		"author": "petr",
		"text": "Здравствуйте, тут есть кто-нибудь?",
		"type":"1"
	}, {
		"id": 2,
		"author": "vasiliy",
		"text": "Да, я вас слушаю!",
		"type":"2"
	}]
}]